*-*-*-*-*-*-*-*-*-*-*-*-*-*-*-*-*-*-*-*-*-*-*-*-*-*-*-*-*-*-*-*-*-*-*-*-*-*-*-*
Date: 12/10/2015 3:23:11 PM
Error sending email in SendMailMessage:  Failure sending mail. Unable to connect to the remote server No connection could be made because the target machine actively refused it 93.167.110.224:25
*-*-*-*-*-*-*-*-*-*-*-*-*-*-*-*-*-*-*-*-*-*-*-*-*-*-*-*-*-*-*-*-*-*-*-*-*-*-*-*
Date: 12/10/2015 3:25:33 PM
Error sending email in SendMailMessage:  Failure sending mail. Unable to connect to the remote server No connection could be made because the target machine actively refused it 93.167.110.224:25
*-*-*-*-*-*-*-*-*-*-*-*-*-*-*-*-*-*-*-*-*-*-*-*-*-*-*-*-*-*-*-*-*-*-*-*-*-*-*-*
Date: 12/10/2015 4:06:06 PM
Error checking stopforumspam.com: The remote server returned an error: (503) Server Unavailable.
*-*-*-*-*-*-*-*-*-*-*-*-*-*-*-*-*-*-*-*-*-*-*-*-*-*-*-*-*-*-*-*-*-*-*-*-*-*-*-*
Date: 12/10/2015 4:06:07 PM
Error sending email in SendMailMessage:  Failure sending mail. Unable to connect to the remote server No connection could be made because the target machine actively refused it 93.167.110.224:25
*-*-*-*-*-*-*-*-*-*-*-*-*-*-*-*-*-*-*-*-*-*-*-*-*-*-*-*-*-*-*-*-*-*-*-*-*-*-*-*
Date: 12/10/2015 4:07:28 PM
An attempt to download a remote file has been halted due to unknown content length: http://dnbe.net/docs
*-*-*-*-*-*-*-*-*-*-*-*-*-*-*-*-*-*-*-*-*-*-*-*-*-*-*-*-*-*-*-*-*-*-*-*-*-*-*-*
Date: 12/10/2015 4:07:28 PM
An attempt to download a remote file has been halted due to unknown content length: http://dnbe.net/docs/post/frequently-asked-questions#HowdoIresetlostadminpassword
*-*-*-*-*-*-*-*-*-*-*-*-*-*-*-*-*-*-*-*-*-*-*-*-*-*-*-*-*-*-*-*-*-*-*-*-*-*-*-*
Date: 12/10/2015 4:07:30 PM
An attempt to download a remote file has been halted due to unknown content length: http://dnbe.net/docs
