[
    {
        "Name": "makelele90",
        "Claims": [
            { "Type": "http://schemas.xmlsoap.org/ws/2005/05/identity/claims/nameidentifier", "Value": "Francis" },
            { "Type": "http://schemas.xmlsoap.org/ws/2005/05/identity/claims/name", "Value": "Tchatchoua" },
            { "Type": "http://schemas.xmlsoap.org/ws/2005/05/identity/claims/emailaddress", "Value": "francis@mail.com" },
            { "Type": "http://schemas.microsoft.com/accesscontrolservice/2010/07/claims/identityprovider", "Value": "EmbeddedSts" }
        ]
    },
    {
        "Name": "asia",
        "Claims": [
            { "Type": "http://schemas.xmlsoap.org/ws/2005/05/identity/claims/nameidentifier", "Value": "Joanna" },
            { "Type": "http://schemas.xmlsoap.org/ws/2005/05/identity/claims/name", "Value": "Czchowska" },
            { "Type": "http://schemas.xmlsoap.org/ws/2005/05/identity/claims/emailaddress", "Value": "joanna@hotmail.com" },
            { "Type": "http://schemas.microsoft.com/accesscontrolservice/2010/07/claims/identityprovider", "Value": "EmbeddedSts" }
        ]
    } 

]
