{
  "oauth2": {
    "secret": "NFFMcwwsR+L4FigcNKAEP8jlKUcBpLsVH6XwZD39CxM="
  },
  "sql": {
    "connection": "mssql://sa:dosh87$$@172.31.20.46/CustomerDocuments"
  },
  "useSSL": false,
  "port": 3000,
  "upload": {
    "limits": {},
    "destination": "/data/document-uploads"
  },
  "logging": {
    "directory": "/data/logs/document-uploads",
    "requests": {
      "filename": "requests.log"
    },
    "errors": {
      "filename": "errors.log"
    }
  }
}
